Estimate Detection Range from Passive Acoustic Telemetry • detrange
…
Pings (integer)

Pings is the expected number of detections. An example dataset range_test is included for reference.

library(detrange)
#> Loading required package: mbr
#> Registered S3 method overwritten by 'mbr':
#>   method         from
#>   pars.character term
#> Loading required package: jmbr

### view example dataset
data <- range_test
data
#> # A tibble: 38 × 4
#>    Station  Distance Detects Pings
#>    <fct>       <dbl>   <int> <int>
#>  1 Station1       48      98   104
#>  2 Station1      146      72   138
#>  3 Station1      209      28   178
#>  4 Station1      332       0    55
#>  5 Station1      408       1   119
#>  6 Station1      511       0   154
#>  7 Station1      636       0    85
#>  8 Station2       10      71    71
#>  9 Station2      104      39    52
#> 10 Station2      226      28   142
#> # … with 28 more rows
…
