Simulated range test data — range_test • detrange
…
    range_test.Rd

    Simulated range test data

range_test

    Format

    A data.frame.

    Examples

range_test

#> # A tibble: 38 × 4
#>    Station  Distance Detects Pings
#>    <fct>       <dbl>   <int> <int>
#>  1 Station1       48      98   104
#>  2 Station1      146      72   138
#>  3 Station1      209      28   178
#>  4 Station1      332       0    55
#>  5 Station1      408       1   119
#>  6 Station1      511       0   154
#>  7 Station1      636       0    85
#>  8 Station2       10      71    71
#>  9 Station2      104      39    52
#> 10 Station2      226      28   142
#> # … with 28 more rows
…
